{
  "suite_name": "user_api_test",
  "start_time": "2025-12-24T04:02:35.725315Z",
  "end_time": "2025-12-24T04:02:35.767792Z",
  "results": [
    {
      "test_name": "List Users - No Auth",
      "success": true,
      "details": "Got expected status: 200",
      "duration_seconds": 0.011337166,
      "input": null,
      "output": {
        "status_code": 200
      },
      "timestamp": "2025-12-24T04:02:35.736805Z"
    },
    {
      "test_name": "Create User - Success",
      "success": true,
      "details": "User created successfully",
      "duration_seconds": 0.014000042,
      "input": {
        "email": "testuser-89b377a0@test.local",
        "email_verified": false,
        "failed_login_attempts": 0,
        "id": "1d94cb36-52e1-4150-9186-da5e4a27378b",
        "metadata": {
          "created_at": "2025-12-24T04:02:35.736830+00:00",
          "updated_at": "2025-12-24T04:02:35.736830+00:00"
        },
        "password_hash": "$argon2id$v=19$m=19456,t=2,p=1$salt-c4dddf3b$hash-39632bfdxxxxxxxxxxxxxxxxxxxx",
        "status": "active",
        "username": "testuser-6ac4c4d9"
      },
      "output": {
        "body": "{\"success\":true,\"data\":{\"id\":\"f4c667f3-c400-4537-9b07-d54638f2265e\",\"username\":\"testuser-6ac4c4d9\",\"email\":\"testuser-89b377a0@test.local\",\"password_hash\":\"$argon2id$v=19$m=19456,t=2,p=1$salt-c4dddf3b$hash-39632bfdxxxxxxxxxxxxxxxxxxxx\",\"status\":\"active\",\"email_verified\":false,\"failed_login_attempts\":0,\"locked_until\":null,\"last_login\":null,\"metadata\":{\"created_at\":\"2025-12-24T04:02:35.737034+00:00\",\"updated_at\":\"2025-12-24T04:02:35.737034+00:00\"}}}",
        "status_code": 201
      },
      "timestamp": "2025-12-24T04:02:35.750821Z"
    },
    {
      "test_name": "Create User - Invalid Email",
      "success": true,
      "details": "Correctly rejected invalid email",
      "duration_seconds": 0.000509708,
      "input": {
        "email": "not-a-valid-email",
        "email_verified": false,
        "failed_login_attempts": 0,
        "id": "de0ca52f-d6ad-457f-a62c-010644788056",
        "metadata": {
          "created_at": "2025-12-24T04:02:35.750825+00:00",
          "updated_at": "2025-12-24T04:02:35.750825+00:00"
        },
        "password_hash": "$argon2id$v=19$m=19456,t=2,p=1$salt-23ac6fc1$hash-7470922dxxxxxxxxxxxxxxxxxxxx",
        "status": "active",
        "username": "testuser-fd1d51df"
      },
      "output": {
        "body": "{\"success\":false,\"error\":\"Validation error: Validation failed: Field 'email' must be a valid email address\"}",
        "status_code": 400
      },
      "timestamp": "2025-12-24T04:02:35.751334Z"
    },
    {
      "test_name": "Create User - Missing Fields",
      "success": true,
      "details": "Correctly rejected request with missing fields",
      "duration_seconds": 0.000263375,
      "input": {
        "username": "onlyusername"
      },
      "output": {
        "body": "Failed to deserialize the JSON body into the target type: missing field `email` at line 1 column 27",
        "status_code": 422
      },
      "timestamp": "2025-12-24T04:02:35.751599Z"
    },
    {
      "test_name": "Get User - Success",
      "success": true,
      "details": "Retrieved user 38af0bf6-6dc5-47df-b502-3775439711aa",
      "duration_seconds": 0.007831542,
      "input": null,
      "output": {
        "body": "{\"success\":true,\"data\":{\"id\":\"38af0bf6-6dc5-47df-b502-3775439711aa\",\"username\":\"getuser-f05f8d98\",\"email\":\"getuser-685db614@test.local\",\"password_hash\":\"$argon2id$v=19$m=19456,t=2,p=1$salt-e570ac6d$hash-6b87bd31xxxxxxxxxxxxxxxxxxxx\",\"status\":\"active\",\"email_verified\":false,\"failed_login_attempts\":0,\"locked_until\":null,\"last_login\":null,\"metadata\":{\"created_at\":\"2025-12-24T04:02:35.751775+00:00\",\"updated_at\":\"2025-12-24T04:02:35.751775+00:00\"}}}",
        "status_code": 200
      },
      "timestamp": "2025-12-24T04:02:35.759431Z"
    },
    {
      "test_name": "Get User - Not Found",
      "success": true,
      "details": "Correctly returned 404 for non-existent user",
      "duration_seconds": 0.000935209,
      "input": null,
      "output": {
        "body": "{\"success\":false,\"error\":\"User with id '598a7294-8b69-488d-994b-19758fe2f86f' not found\"}",
        "status_code": 404
      },
      "timestamp": "2025-12-24T04:02:35.760371Z"
    },
    {
      "test_name": "Delete User - Success",
      "success": true,
      "details": "Deleted user 89270f7a-0e6e-4af1-9f87-08aa2e4329c0",
      "duration_seconds": 0.004969708,
      "input": null,
      "output": {
        "body": "",
        "status_code": 204
      },
      "timestamp": "2025-12-24T04:02:35.765342Z"
    },
    {
      "test_name": "List Users - Pagination",
      "success": true,
      "details": "Pagination working correctly",
      "duration_seconds": 0.002425,
      "input": null,
      "output": {
        "body": "{\"success\":true,\"data\":{\"data\":[{\"id\":\"f9be2d9b-0839-43d9-8cdc-2e9bd671fcba\",\"username\":\"testuser-634e7907\",\"email\":\"testuser-18557a22@test.local\",\"password_hash\":\"$argon2id$v=19$m=19456,t=2,p=1$salt-20e09984$hash-23d08cedxxxxxxxxxxxxxxxxxxxx\",\"status\":\"active\",\"email_verified\":false,\"failed_login_attempts\":0,\"locked_until\":null,\"last_login\":null,\"metadata\":{\"created_at\":\"2025-12-20T03:55:12.889579+00:00\",\"updated_at\":\"2025-12-20T03:55:12.889579+00:00\"}},{\"id\":\"f7636d64-9d91-40fd-80ae-39dd3c7a1d19\",\"username\":\"getuser-2b9e973d\",\"email\":\"getuser-9985c1a2@test.local\",\"password_hash\":\"$argon2id$v=19$m=19456,t=2,p=1$salt-a49c2427$hash-bbec8130xxxxxxxxxxxxxxxxxxxx\",\"status\":\"active\",\"email_verified\":false,\"failed_login_attempts\":0,\"locked_until\":null,\"last_login\":null,\"metadata\":{\"created_at\":\"2025-12-20T17:17:13.382721+00:00\",\"updated_at\":\"2025-12-20T17:17:13.382721+00:00\"}},{\"id\":\"f6b1dc72-3385-4023-960f-33f4e6d9103d\",\"username\":\"testuser-5d905632\",\"email\":\"testuser-c03dcf66@test.local\",\"password_hash\":\"$argon2id$v=19$m=19456,t=2,p=1$salt-3c5a4964$hash-3d2e0685xxxxxxxxxxxxxxxxxxxx\",\"status\":\"active\",\"email_verified\":false,\"failed_login_attempts\":0,\"locked_until\":null,\"last_login\":null,\"metadata\":{\"created_at\":\"2025-12-20T10:30:13.505812+00:00\",\"updated_at\":\"2025-12-20T10:30:13.505812+00:00\"}},{\"id\":\"f5eed036-8891-409b-a68d-a3634ba035f2\",\"username\":\"testuser-0a84cf84\",\"email\":\"testuser-c7149c18@test.local\",\"password_hash\":\"$argon2id$v=19$m=19456,t=2,p=1$salt-955212b7$hash-9a70f2d4xxxxxxxxxxxxxxxxxxxx\",\"status\":\"active\",\"email_verified\":false,\"failed_login_attempts\":0,\"locked_until\":null,\"last_login\":null,\"metadata\":{\"created_at\":\"2025-12-19T15:19:07.039958+00:00\",\"updated_at\":\"2025-12-19T15:19:07.039958+00:00\"}},{\"id\":\"f4c667f3-c400-4537-9b07-d54638f2265e\",\"username\":\"testuser-6ac4c4d9\",\"email\":\"testuser-89b377a0@test.local\",\"password_hash\":\"$argon2id$v=19$m=19456,t=2,p=1$salt-c4dddf3b$hash-39632bfdxxxxxxxxxxxxxxxxxxxx\",\"status\":\"active\",\"email_verified\":false,\"failed_login_attempts\":0,\"locked_until\":null,\"last_login\":null,\"metadata\":{\"created_at\":\"2025-12-24T04:02:35.737034+00:00\",\"updated_at\":\"2025-12-24T04:02:35.737034+00:00\"}},{\"id\":\"ef9c2af1-fb7f-4a98-a9db-bc5f7ae3f92b\",\"username\":\"testuser-52cf6cf4\",\"email\":\"testuser-4e23bb93@test.local\",\"password_hash\":\"$argon2id$v=19$m=19456,t=2,p=1$salt-490464b2$hash-c072e7d7xxxxxxxxxxxxxxxxxxxx\",\"status\":\"active\",\"email_verified\":false,\"failed_login_attempts\":0,\"locked_until\":null,\"last_login\":null,\"metadata\":{\"created_at\":\"2025-12-19T15:02:29.291373+00:00\",\"updated_at\":\"2025-12-19T15:02:29.291373+00:00\"}},{\"id\":\"ecb15a6e-7e75-42d0-937e-7e766e089383\",\"username\":\"getuser-fca89c7f\",\"email\":\"getuser-0428681f@test.local\",\"password_hash\":\"$argon2id$v=19$m=19456,t=2,p=1$salt-601c3873$hash-1107c2e7xxxxxxxxxxxxxxxxxxxx\",\"status\":\"active\",\"email_verified\":false,\"failed_login_attempts\":0,\"locked_until\":null,\"last_login\":null,\"metadata\":{\"created_at\":\"2025-12-20T10:42:10.686187+00:00\",\"updated_at\":\"2025-12-20T10:42:10.686187+00:00\"}},{\"id\":\"e67dd080-a02f-4ece-af30-c585aabd6b27\",\"username\":\"constraint_user_2\",\"email\":\"constraint_test@auth.domain\",\"password_hash\":\"password_2\",\"status\":\"active\",\"email_verified\":false,\"failed_login_attempts\":0,\"locked_until\":null,\"last_login\":null,\"metadata\":{\"created_at\":\"2025-12-17T12:08:42.044801+00:00\",\"updated_at\":\"2025-12-17T12:08:42.044808+00:00\"}},{\"id\":\"e1d8c361-8ba1-453b-8392-69a49ed8424d\",\"username\":\"testuser-c681555a\",\"email\":\"testuser-83e20558@test.local\",\"password_hash\":\"$argon2id$v=19$m=19456,t=2,p=1$salt-c829cef9$hash-46d8723axxxxxxxxxxxxxxxxxxxx\",\"status\":\"active\",\"email_verified\":false,\"failed_login_attempts\":0,\"locked_until\":null,\"last_login\":null,\"metadata\":{\"created_at\":\"2025-12-13T18:50:14.706393+00:00\",\"updated_at\":\"2025-12-13T18:50:14.706393+00:00\"}},{\"id\":\"dc4ad86f-d963-4670-be51-7f3574013718\",\"username\":\"testuser-9623f854\",\"email\":\"testuser-62b3d491@test.local\",\"password_hash\":\"$argon2id$v=19$m=19456,t=2,p=1$salt-65b9b0ea$hash-50bbc450xxxxxxxxxxxxxxxxxxxx\",\"status\":\"active\",\"email_verified\":false,\"failed_login_attempts\":0,\"locked_until\":null,\"last_login\":null,\"metadata\":{\"created_at\":\"2025-12-20T10:22:45.894997+00:00\",\"updated_at\":\"2025-12-20T10:22:45.894997+00:00\"}}],\"meta\":{\"total\":68,\"page\":1,\"limit\":10,\"total_pages\":7}}}",
        "status_code": 200
      },
      "timestamp": "2025-12-24T04:02:35.767772Z"
    }
  ]
}