{
  "suite_name": "user_settings_api_test",
  "start_time": "2025-12-24T04:02:35.693803Z",
  "end_time": "2025-12-24T04:02:35.724259Z",
  "results": [
    {
      "test_name": "UserSettings - List",
      "success": true,
      "details": "List retrieved successfully",
      "duration_seconds": 0.010537166,
      "input": {
        "endpoint": "/api/v1/user_settings",
        "method": "GET"
      },
      "output": {
        "body_preview": "{\"success\":true,\"data\":{\"data\":[{\"user_id\":\"fabf505f-ce31-4a5e-a711-28923149edfe\",\"theme\":\"dark\",\"language\":\"en\",\"timezone\":\"Asia/Jakarta\",\"notifications_enabled\":true,\"email_notifications\":true,\"sms_notifications\":false,\"mfa_enabled\":false,\"custom_settings\":null,\"metadata\":{\"created_at\":\"2025-12-13T18:20:54.586438+00:00\",\"source\":\"integration_test\",\"test\":true,\"updated_at\":\"2025-12-13T18:20:54.586442+00:00\"}},{\"user_id\":\"fa553dde-9dcd-4064-a6b2-6bde1d7577b8\",\"theme\":\"dark\",\"language\":\"en\",\"time",
        "status_code": 200
      },
      "timestamp": "2025-12-24T04:02:35.704345Z"
    },
    {
      "test_name": "UserSettings - Pagination",
      "success": true,
      "details": "Pagination works correctly",
      "duration_seconds": 0.004556875,
      "input": {
        "endpoint": "/api/v1/user_settings?page=1&per_page=5",
        "method": "GET",
        "params": {
          "page": 1,
          "per_page": 5
        }
      },
      "output": {
        "body": {
          "data": {
            "data": [
              {
                "custom_settings": null,
                "email_notifications": true,
                "language": "en",
                "metadata": {
                  "created_at": "2025-12-13T18:20:54.586438+00:00",
                  "source": "integration_test",
                  "test": true,
                  "updated_at": "2025-12-13T18:20:54.586442+00:00"
                },
                "mfa_enabled": false,
                "notifications_enabled": true,
                "sms_notifications": false,
                "theme": "dark",
                "timezone": "Asia/Jakarta",
                "user_id": "fabf505f-ce31-4a5e-a711-28923149edfe"
              },
              {
                "custom_settings": null,
                "email_notifications": true,
                "language": "en",
                "metadata": {
                  "created_at": "2025-12-20T10:47:02.442743+00:00",
                  "source": "integration_test",
                  "test": true,
                  "updated_at": "2025-12-20T10:47:02.442744+00:00"
                },
                "mfa_enabled": false,
                "notifications_enabled": true,
                "sms_notifications": false,
                "theme": "dark",
                "timezone": "Asia/Jakarta",
                "user_id": "fa553dde-9dcd-4064-a6b2-6bde1d7577b8"
              },
              {
                "custom_settings": null,
                "email_notifications": true,
                "language": "en",
                "metadata": {
                  "created_at": "2025-12-20T10:42:10.674400+00:00",
                  "source": "integration_test",
                  "test": true,
                  "updated_at": "2025-12-20T10:42:10.674401+00:00"
                },
                "mfa_enabled": false,
                "notifications_enabled": true,
                "sms_notifications": false,
                "theme": "dark",
                "timezone": "Asia/Jakarta",
                "user_id": "fa1618f1-0887-42b3-9dae-d70024bd3d71"
              },
              {
                "custom_settings": null,
                "email_notifications": true,
                "language": "en",
                "metadata": {
                  "created_at": "2025-12-19T13:54:05.329791+00:00",
                  "source": "integration_test",
                  "test": true,
                  "updated_at": "2025-12-19T13:54:05.329792+00:00"
                },
                "mfa_enabled": false,
                "notifications_enabled": true,
                "sms_notifications": false,
                "theme": "dark",
                "timezone": "Asia/Jakarta",
                "user_id": "f9420409-6a17-4a1e-b7b8-85e22662ffa5"
              },
              {
                "custom_settings": null,
                "email_notifications": true,
                "language": "en",
                "metadata": {
                  "created_at": "2025-12-20T10:53:27.736444+00:00",
                  "source": "integration_test",
                  "test": true,
                  "updated_at": "2025-12-20T10:53:27.736445+00:00"
                },
                "mfa_enabled": false,
                "notifications_enabled": true,
                "sms_notifications": false,
                "theme": "dark",
                "timezone": "Asia/Jakarta",
                "user_id": "f73924ce-6df0-4e6a-a431-0971527fce0f"
              },
              {
                "custom_settings": null,
                "email_notifications": true,
                "language": "en",
                "metadata": {
                  "created_at": "2025-12-20T10:53:27.736461+00:00",
                  "source": "integration_test",
                  "test": true,
                  "updated_at": "2025-12-20T10:53:27.736462+00:00"
                },
                "mfa_enabled": false,
                "notifications_enabled": true,
                "sms_notifications": false,
                "theme": "dark",
                "timezone": "Asia/Jakarta",
                "user_id": "f69a79d3-ccdb-4449-a651-429e71378e0b"
              },
              {
                "custom_settings": null,
                "email_notifications": true,
                "language": "en",
                "metadata": {
                  "created_at": "2025-12-13T18:50:14.691695+00:00",
                  "source": "integration_test",
                  "test": true,
                  "updated_at": "2025-12-13T18:50:14.691696+00:00"
                },
                "mfa_enabled": false,
                "notifications_enabled": true,
                "sms_notifications": false,
                "theme": "dark",
                "timezone": "Asia/Jakarta",
                "user_id": "ed3be14a-4316-40dd-906a-43e6f5507bc4"
              },
              {
                "custom_settings": null,
                "email_notifications": true,
                "language": "en",
                "metadata": {
                  "created_at": "2025-12-20T10:24:44.918542+00:00",
                  "source": "integration_test",
                  "test": true,
                  "updated_at": "2025-12-20T10:24:44.918543+00:00"
                },
                "mfa_enabled": false,
                "notifications_enabled": true,
                "sms_notifications": false,
                "theme": "dark",
                "timezone": "Asia/Jakarta",
                "user_id": "ea2d7b18-6880-414e-85f1-0ec3768934ea"
              },
              {
                "custom_settings": null,
                "email_notifications": true,
                "language": "en",
                "metadata": {
                  "created_at": "2025-12-20T17:23:13.153492+00:00",
                  "source": "integration_test",
                  "test": true,
                  "updated_at": "2025-12-20T17:23:13.153493+00:00"
                },
                "mfa_enabled": false,
                "notifications_enabled": true,
                "sms_notifications": false,
                "theme": "dark",
                "timezone": "Asia/Jakarta",
                "user_id": "e78917e1-7416-4965-9c58-9d88b7a67481"
              },
              {
                "custom_settings": null,
                "email_notifications": true,
                "language": "en",
                "metadata": {
                  "created_at": "2025-12-20T17:17:13.352663+00:00",
                  "source": "integration_test",
                  "test": true,
                  "updated_at": "2025-12-20T17:17:13.352666+00:00"
                },
                "mfa_enabled": false,
                "notifications_enabled": true,
                "sms_notifications": false,
                "theme": "dark",
                "timezone": "Asia/Jakarta",
                "user_id": "e4af53bd-75f1-41ac-ab1a-03a7c7ad8345"
              },
              {
                "custom_settings": null,
                "email_notifications": true,
                "language": "en",
                "metadata": {
                  "created_at": "2025-12-20T03:48:50.252955+00:00",
                  "source": "integration_test",
                  "test": true,
                  "updated_at": "2025-12-20T03:48:50.252957+00:00"
                },
                "mfa_enabled": false,
                "notifications_enabled": true,
                "sms_notifications": false,
                "theme": "dark",
                "timezone": "Asia/Jakarta",
                "user_id": "e3384707-8353-4dd6-aa29-76b3e3bac6a2"
              },
              {
                "custom_settings": null,
                "email_notifications": true,
                "language": "en",
                "metadata": {
                  "created_at": "2025-12-19T15:19:07.027223+00:00",
                  "source": "integration_test",
                  "test": true,
                  "updated_at": "2025-12-19T15:19:07.027225+00:00"
                },
                "mfa_enabled": false,
                "notifications_enabled": true,
                "sms_notifications": false,
                "theme": "dark",
                "timezone": "Asia/Jakarta",
                "user_id": "e2ceb86a-6086-4be6-9bf1-d2781dca67cd"
              },
              {
                "custom_settings": null,
                "email_notifications": true,
                "language": "en",
                "metadata": {
                  "created_at": "2025-12-20T17:23:13.153500+00:00",
                  "source": "integration_test",
                  "test": true,
                  "updated_at": "2025-12-20T17:23:13.153501+00:00"
                },
                "mfa_enabled": false,
                "notifications_enabled": true,
                "sms_notifications": false,
                "theme": "dark",
                "timezone": "Asia/Jakarta",
                "user_id": "e15ec30f-739f-48c8-9539-12b1debf46de"
              },
              {
                "custom_settings": null,
                "email_notifications": true,
                "language": "en",
                "metadata": {
                  "created_at": "2025-12-20T10:24:44.922995+00:00",
                  "source": "integration_test",
                  "test": true,
                  "updated_at": "2025-12-20T10:24:44.922997+00:00"
                },
                "mfa_enabled": false,
                "notifications_enabled": true,
                "sms_notifications": false,
                "theme": "dark",
                "timezone": "Asia/Jakarta",
                "user_id": "e0f259bc-1a5e-4c70-b338-798039b995ab"
              },
              {
                "custom_settings": null,
                "email_notifications": true,
                "language": "en",
                "metadata": {
                  "created_at": "2025-12-20T10:54:57.407154+00:00",
                  "source": "integration_test",
                  "test": true,
                  "updated_at": "2025-12-20T10:54:57.407158+00:00"
                },
                "mfa_enabled": false,
                "notifications_enabled": true,
                "sms_notifications": false,
                "theme": "dark",
                "timezone": "Asia/Jakarta",
                "user_id": "dfd966b5-50bb-487a-82bb-715bd54215aa"
              },
              {
                "custom_settings": null,
                "email_notifications": true,
                "language": "en",
                "metadata": {
                  "created_at": "2025-12-20T03:48:50.252987+00:00",
                  "source": "integration_test",
                  "test": true,
                  "updated_at": "2025-12-20T03:48:50.252988+00:00"
                },
                "mfa_enabled": false,
                "notifications_enabled": true,
                "sms_notifications": false,
                "theme": "dark",
                "timezone": "Asia/Jakarta",
                "user_id": "df772051-951d-474b-8447-f7c0c5dadb7b"
              },
              {
                "custom_settings": null,
                "email_notifications": true,
                "language": "en",
                "metadata": {
                  "created_at": "2025-12-19T17:37:03.105218+00:00",
                  "source": "integration_test",
                  "test": true,
                  "updated_at": "2025-12-19T17:37:03.105221+00:00"
                },
                "mfa_enabled": false,
                "notifications_enabled": true,
                "sms_notifications": false,
                "theme": "dark",
                "timezone": "Asia/Jakarta",
                "user_id": "deb593aa-9d4a-42e4-8eca-7ac88cc76f69"
              },
              {
                "custom_settings": null,
                "email_notifications": true,
                "language": "en",
                "metadata": {
                  "created_at": "2025-12-20T10:54:57.419575+00:00",
                  "source": "integration_test",
                  "test": true,
                  "updated_at": "2025-12-20T10:54:57.419578+00:00"
                },
                "mfa_enabled": false,
                "notifications_enabled": true,
                "sms_notifications": false,
                "theme": "dark",
                "timezone": "Asia/Jakarta",
                "user_id": "de3a50fd-7e61-4a18-8669-6dfb1184ce3d"
              },
              {
                "custom_settings": null,
                "email_notifications": true,
                "language": "en",
                "metadata": {
                  "created_at": "2025-12-20T10:22:46.182254+00:00",
                  "source": "integration_test",
                  "test": true,
                  "updated_at": "2025-12-20T10:22:46.182258+00:00"
                },
                "mfa_enabled": false,
                "notifications_enabled": true,
                "sms_notifications": false,
                "theme": "dark",
                "timezone": "Asia/Jakarta",
                "user_id": "dc24169e-8c8f-46cf-81a0-680d188797c6"
              },
              {
                "custom_settings": null,
                "email_notifications": true,
                "language": "en",
                "metadata": {
                  "created_at": "2025-12-20T03:55:12.876966+00:00",
                  "source": "integration_test",
                  "test": true,
                  "updated_at": "2025-12-20T03:55:12.876968+00:00"
                },
                "mfa_enabled": false,
                "notifications_enabled": true,
                "sms_notifications": false,
                "theme": "dark",
                "timezone": "Asia/Jakarta",
                "user_id": "db632d04-38aa-4cfb-bb5c-c4945b07eda3"
              }
            ],
            "meta": {
              "limit": 20,
              "page": 1,
              "total": 115,
              "total_pages": 6
            }
          },
          "success": true
        },
        "status_code": 200
      },
      "timestamp": "2025-12-24T04:02:35.709285Z"
    },
    {
      "test_name": "UserSettings - Create",
      "success": true,
      "details": "Entity created successfully",
      "duration_seconds": 0.003916292,
      "input": {
        "body": {
          "email_notifications": true,
          "id": "bc8d26ae-2622-43fd-9420-5e1fbb25811b",
          "language": "en",
          "metadata": {
            "created_at": "2025-12-24T04:02:35.709330+00:00",
            "source": "integration_test",
            "test": true,
            "updated_at": "2025-12-24T04:02:35.709334+00:00"
          },
          "mfa_enabled": false,
          "notifications_enabled": true,
          "sms_notifications": false,
          "theme": "dark",
          "timezone": "Asia/Jakarta",
          "user_id": "8f4e6489-57c2-4b44-b898-a8e957a75e4a"
        },
        "endpoint": "/api/v1/user_settings",
        "method": "POST"
      },
      "output": {
        "body": {
          "data": {
            "custom_settings": null,
            "email_notifications": true,
            "language": "en",
            "metadata": {
              "created_at": "2025-12-24T04:02:35.709330+00:00",
              "source": "integration_test",
              "test": true,
              "updated_at": "2025-12-24T04:02:35.709334+00:00"
            },
            "mfa_enabled": false,
            "notifications_enabled": true,
            "sms_notifications": false,
            "theme": "dark",
            "timezone": "Asia/Jakarta",
            "user_id": "8f4e6489-57c2-4b44-b898-a8e957a75e4a"
          },
          "success": true
        },
        "status_code": 201
      },
      "timestamp": "2025-12-24T04:02:35.713257Z"
    },
    {
      "test_name": "UserSettings - Create Invalid",
      "success": true,
      "details": "Validation correctly rejected invalid data",
      "duration_seconds": 0.00076525,
      "input": {
        "body": {
          "language": "invalid-lang-code-too-long",
          "theme": "INVALID_THEME",
          "timezone": "",
          "user_id": "not-uuid"
        },
        "endpoint": "/api/v1/user_settings",
        "method": "POST"
      },
      "output": {
        "body": "Failed to deserialize the JSON body into the target type: theme: unknown variant `INVALID_THEME`, expected one of `light`, `dark`, `system` at line 1 column 64",
        "status_code": 422
      },
      "timestamp": "2025-12-24T04:02:35.714042Z"
    },
    {
      "test_name": "UserSettings - Get Not Found",
      "success": true,
      "details": "Correctly returned 404 for non-existent entity",
      "duration_seconds": 0.001316167,
      "input": {
        "endpoint": "/api/v1/user_settings/48bc1c73-c36e-4ec8-bc0c-08189ee36a26",
        "id": "48bc1c73-c36e-4ec8-bc0c-08189ee36a26",
        "method": "GET"
      },
      "output": {
        "body": "{\"success\":false,\"error\":\"UserSettings with id '48bc1c73-c36e-4ec8-bc0c-08189ee36a26' not found\"}",
        "status_code": 404
      },
      "timestamp": "2025-12-24T04:02:35.715369Z"
    },
    {
      "test_name": "UserSettings - Bulk Create",
      "success": true,
      "details": "3 entities created in bulk",
      "duration_seconds": 0.006806,
      "input": {
        "body": [
          {
            "email_notifications": true,
            "id": "934fd251-da49-49fc-a90a-d6db6af5a477",
            "language": "en",
            "metadata": {
              "created_at": "2025-12-24T04:02:35.715382+00:00",
              "source": "integration_test",
              "test": true,
              "updated_at": "2025-12-24T04:02:35.715384+00:00"
            },
            "mfa_enabled": false,
            "notifications_enabled": true,
            "sms_notifications": false,
            "theme": "dark",
            "timezone": "Asia/Jakarta",
            "user_id": "0cee717f-10bb-4f14-b630-57dbfce267c6"
          },
          {
            "email_notifications": true,
            "id": "6f758e2e-5d17-4d54-a8c0-30819dec6df3",
            "language": "en",
            "metadata": {
              "created_at": "2025-12-24T04:02:35.715392+00:00",
              "source": "integration_test",
              "test": true,
              "updated_at": "2025-12-24T04:02:35.715393+00:00"
            },
            "mfa_enabled": false,
            "notifications_enabled": true,
            "sms_notifications": false,
            "theme": "dark",
            "timezone": "Asia/Jakarta",
            "user_id": "9302175b-3c1a-4b0b-bf28-0adf7b084e7f"
          },
          {
            "email_notifications": true,
            "id": "36a877b0-be07-4904-8cb0-5b2ddf8f7153",
            "language": "en",
            "metadata": {
              "created_at": "2025-12-24T04:02:35.715400+00:00",
              "source": "integration_test",
              "test": true,
              "updated_at": "2025-12-24T04:02:35.715401+00:00"
            },
            "mfa_enabled": false,
            "notifications_enabled": true,
            "sms_notifications": false,
            "theme": "dark",
            "timezone": "Asia/Jakarta",
            "user_id": "03fe4b1a-5f34-4c34-a68a-98ba6025d425"
          }
        ],
        "endpoint": "/api/v1/user_settings/bulk",
        "method": "POST"
      },
      "output": {
        "body": {
          "data": {
            "errors": [],
            "failed": 0,
            "items": [
              {
                "custom_settings": null,
                "email_notifications": true,
                "language": "en",
                "metadata": {
                  "created_at": "2025-12-24T04:02:35.715382+00:00",
                  "source": "integration_test",
                  "test": true,
                  "updated_at": "2025-12-24T04:02:35.715384+00:00"
                },
                "mfa_enabled": false,
                "notifications_enabled": true,
                "sms_notifications": false,
                "theme": "dark",
                "timezone": "Asia/Jakarta",
                "user_id": "0cee717f-10bb-4f14-b630-57dbfce267c6"
              },
              {
                "custom_settings": null,
                "email_notifications": true,
                "language": "en",
                "metadata": {
                  "created_at": "2025-12-24T04:02:35.715392+00:00",
                  "source": "integration_test",
                  "test": true,
                  "updated_at": "2025-12-24T04:02:35.715393+00:00"
                },
                "mfa_enabled": false,
                "notifications_enabled": true,
                "sms_notifications": false,
                "theme": "dark",
                "timezone": "Asia/Jakarta",
                "user_id": "9302175b-3c1a-4b0b-bf28-0adf7b084e7f"
              },
              {
                "custom_settings": null,
                "email_notifications": true,
                "language": "en",
                "metadata": {
                  "created_at": "2025-12-24T04:02:35.715400+00:00",
                  "source": "integration_test",
                  "test": true,
                  "updated_at": "2025-12-24T04:02:35.715401+00:00"
                },
                "mfa_enabled": false,
                "notifications_enabled": true,
                "sms_notifications": false,
                "theme": "dark",
                "timezone": "Asia/Jakarta",
                "user_id": "03fe4b1a-5f34-4c34-a68a-98ba6025d425"
              }
            ],
            "total": 3
          },
          "success": true
        },
        "status_code": 201
      },
      "timestamp": "2025-12-24T04:02:35.722243Z"
    },
    {
      "test_name": "UserSettings - Upsert",
      "success": true,
      "details": "Upsert completed",
      "duration_seconds": 0.001680084,
      "input": {
        "body": {
          "email_notifications": true,
          "id": "2db70f06-68bb-4bdd-8adf-951d2396e87d",
          "language": "en",
          "metadata": {
            "created_at": "2025-12-24T04:02:35.722262+00:00",
            "source": "integration_test",
            "test": true,
            "updated_at": "2025-12-24T04:02:35.722264+00:00"
          },
          "mfa_enabled": false,
          "notifications_enabled": true,
          "sms_notifications": false,
          "theme": "dark",
          "timezone": "Asia/Jakarta",
          "user_id": "4bcdb268-228d-429e-aa76-4c515c0b0db2"
        },
        "endpoint": "/api/v1/user_settings/upsert",
        "method": "POST"
      },
      "output": {
        "body": {
          "data": {
            "custom_settings": null,
            "email_notifications": true,
            "language": "en",
            "metadata": {
              "created_at": "2025-12-24T04:02:35.722262+00:00",
              "source": "integration_test",
              "test": true,
              "updated_at": "2025-12-24T04:02:35.722264+00:00"
            },
            "mfa_enabled": false,
            "notifications_enabled": true,
            "sms_notifications": false,
            "theme": "dark",
            "timezone": "Asia/Jakarta",
            "user_id": "4bcdb268-228d-429e-aa76-4c515c0b0db2"
          },
          "success": true
        },
        "status_code": 200
      },
      "timestamp": "2025-12-24T04:02:35.723958Z"
    },
    {
      "test_name": "UserSettings - Empty Trash",
      "success": true,
      "details": "Trash emptied",
      "duration_seconds": 0.0002875,
      "input": {
        "endpoint": "/api/v1/user_settings/empty",
        "method": "DELETE"
      },
      "output": {
        "body": "{\"success\":true,\"data\":{\"deleted_count\":0},\"message\":\"Successfully deleted 0 items from trash\"}",
        "status_code": 200
      },
      "timestamp": "2025-12-24T04:02:35.724253Z"
    }
  ]
}