{
  "suite_name": "password_reset_token_api_test",
  "start_time": "2025-12-24T04:02:35.395307Z",
  "end_time": "2025-12-24T04:02:35.417319Z",
  "results": [
    {
      "test_name": "PasswordResetToken - List",
      "success": true,
      "details": "List retrieved successfully",
      "duration_seconds": 0.011554667,
      "input": {
        "endpoint": "/api/v1/password_reset_tokens",
        "method": "GET"
      },
      "output": {
        "body_preview": "{\"success\":true,\"data\":{\"data\":[{\"id\":\"fe00aed9-7229-46a3-9cf9-335913874d72\",\"user_id\":\"173b4709-087e-4204-a34c-1060208f0b65\",\"token_hash\":\"0000000000000000000000000000000092dffcac2227fb15cd68fff321729e54\",\"expires_at\":\"2025-12-31T23:59:59Z\",\"is_used\":false,\"used_at\":null,\"ip_address\":\"192.168.1.1\",\"metadata\":{\"created_at\":\"2025-12-19T15:02:29.298264+00:00\",\"source\":\"integration_test\",\"test\":true,\"updated_at\":\"2025-12-19T15:02:29.298266+00:00\",\"user_agent\":\"Mozilla/5.0 Password Reset Request\"}},",
        "status_code": 200
      },
      "timestamp": "2025-12-24T04:02:35.406894Z"
    },
    {
      "test_name": "PasswordResetToken - Pagination",
      "success": true,
      "details": "Pagination works correctly",
      "duration_seconds": 0.004747084,
      "input": {
        "endpoint": "/api/v1/password_reset_tokens?page=1&per_page=5",
        "method": "GET",
        "params": {
          "page": 1,
          "per_page": 5
        }
      },
      "output": {
        "body": {
          "data": {
            "data": [
              {
                "expires_at": "2025-12-31T23:59:59Z",
                "id": "fe00aed9-7229-46a3-9cf9-335913874d72",
                "ip_address": "192.168.1.1",
                "is_used": false,
                "metadata": {
                  "created_at": "2025-12-19T15:02:29.298264+00:00",
                  "source": "integration_test",
                  "test": true,
                  "updated_at": "2025-12-19T15:02:29.298266+00:00",
                  "user_agent": "Mozilla/5.0 Password Reset Request"
                },
                "token_hash": "0000000000000000000000000000000092dffcac2227fb15cd68fff321729e54",
                "used_at": null,
                "user_id": "173b4709-087e-4204-a34c-1060208f0b65"
              },
              {
                "expires_at": "2025-12-31T23:59:59Z",
                "id": "fd9de94b-0caa-4dc2-8c98-6655b1ebf98b",
                "ip_address": "192.168.1.1",
                "is_used": false,
                "metadata": {
                  "created_at": "2025-12-20T03:32:37.756134+00:00",
                  "source": "integration_test",
                  "test": true,
                  "updated_at": "2025-12-20T03:32:37.756139+00:00",
                  "user_agent": "Mozilla/5.0 Password Reset Request"
                },
                "token_hash": "00000000000000000000000000000000af54a04a9d9d475ceb9ab58905576fb7",
                "used_at": null,
                "user_id": "57554312-c1aa-4ec1-b93f-64d4b28b6adf"
              },
              {
                "expires_at": "2025-12-31T23:59:59Z",
                "id": "fa8089c5-e273-4a01-96fb-e219e940d400",
                "ip_address": "192.168.1.1",
                "is_used": false,
                "metadata": {
                  "created_at": "2025-12-20T10:42:10.548272+00:00",
                  "source": "integration_test",
                  "test": true,
                  "updated_at": "2025-12-20T10:42:10.548274+00:00",
                  "user_agent": "Mozilla/5.0 Password Reset Request"
                },
                "token_hash": "00000000000000000000000000000000629755d51cf2d9d6408d9b3146cf6b1e",
                "used_at": null,
                "user_id": "4141ab93-ffbe-4baa-8327-50bf63669f27"
              },
              {
                "expires_at": "2025-12-31T23:59:59Z",
                "id": "f652a457-1bce-4706-82ba-6cd8dccf480f",
                "ip_address": "192.168.1.1",
                "is_used": false,
                "metadata": {
                  "created_at": "2025-12-20T17:23:13.014798+00:00",
                  "source": "integration_test",
                  "test": true,
                  "updated_at": "2025-12-20T17:23:13.014801+00:00",
                  "user_agent": "Mozilla/5.0 Password Reset Request"
                },
                "token_hash": "000000000000000000000000000000004459014d955daef4db54cc02a38cf3a1",
                "used_at": null,
                "user_id": "d8691a62-70c5-4ee1-a8e9-745400b3f320"
              },
              {
                "expires_at": "2025-12-31T23:59:59Z",
                "id": "eedbc621-db44-4a52-9d6b-0a67cebd33a8",
                "ip_address": "192.168.1.1",
                "is_used": false,
                "metadata": {
                  "created_at": "2025-12-13T18:20:54.429583+00:00",
                  "source": "integration_test",
                  "test": true,
                  "updated_at": "2025-12-13T18:20:54.429586+00:00",
                  "user_agent": "Mozilla/5.0 Password Reset Request"
                },
                "token_hash": "00000000000000000000000000000000f7863548960fac952be44a8d282598ce",
                "used_at": null,
                "user_id": "5a150f6c-1dfe-4184-ab25-e087df990b8f"
              },
              {
                "expires_at": "2025-12-31T23:59:59Z",
                "id": "ed68d21c-6ecd-4657-8201-a11210fe2223",
                "ip_address": "192.168.1.1",
                "is_used": false,
                "metadata": {
                  "created_at": "2025-12-20T04:09:23.160394+00:00",
                  "source": "integration_test",
                  "test": true,
                  "updated_at": "2025-12-20T04:09:23.160398+00:00",
                  "user_agent": "Mozilla/5.0 Password Reset Request"
                },
                "token_hash": "00000000000000000000000000000000c1f5fb92777e1fd4ae33ba061b880fea",
                "used_at": null,
                "user_id": "3254bc64-de42-4b41-8147-f9b756b01ac6"
              },
              {
                "expires_at": "2025-12-31T23:59:59Z",
                "id": "dae25264-d364-414a-ab45-a311e9461be4",
                "ip_address": "192.168.1.1",
                "is_used": false,
                "metadata": {
                  "created_at": "2025-12-20T03:55:12.717650+00:00",
                  "source": "integration_test",
                  "test": true,
                  "updated_at": "2025-12-20T03:55:12.717654+00:00",
                  "user_agent": "Mozilla/5.0 Password Reset Request"
                },
                "token_hash": "00000000000000000000000000000000ba1f6b0006e97b89d117f44469fb22a6",
                "used_at": null,
                "user_id": "d2d4a55f-cd79-42c4-9a24-1eec38b78a6c"
              },
              {
                "expires_at": "2025-12-31T23:59:59Z",
                "id": "a73788d1-c616-469a-ba41-558fad4ea619",
                "ip_address": "192.168.1.1",
                "is_used": false,
                "metadata": {
                  "created_at": "2025-12-20T10:47:02.324157+00:00",
                  "source": "integration_test",
                  "test": true,
                  "updated_at": "2025-12-20T10:47:02.324159+00:00",
                  "user_agent": "Mozilla/5.0 Password Reset Request"
                },
                "token_hash": "0000000000000000000000000000000011187185b5344efc8409368a50d0c5be",
                "used_at": null,
                "user_id": "96dcd6fa-b0fb-4a01-8d11-4e17d587c3fd"
              },
              {
                "expires_at": "2025-12-31T23:59:59Z",
                "id": "a70bc47f-6ad6-4d5a-8f01-5ae701fea0fd",
                "ip_address": "192.168.1.1",
                "is_used": false,
                "metadata": {
                  "created_at": "2025-12-20T16:24:13.112950+00:00",
                  "source": "integration_test",
                  "test": true,
                  "updated_at": "2025-12-20T16:24:13.112954+00:00",
                  "user_agent": "Mozilla/5.0 Password Reset Request"
                },
                "token_hash": "000000000000000000000000000000006e1e6a40f43b4e28531f558fa677eb5e",
                "used_at": null,
                "user_id": "7caf7ae2-9cb3-4e1c-87e5-3bd08df1887a"
              },
              {
                "expires_at": "2025-12-31T23:59:59Z",
                "id": "906106cd-f70a-4e71-8353-cefaf3811c39",
                "ip_address": "192.168.1.1",
                "is_used": false,
                "metadata": {
                  "created_at": "2025-12-20T10:53:27.628961+00:00",
                  "source": "integration_test",
                  "test": true,
                  "updated_at": "2025-12-20T10:53:27.628963+00:00",
                  "user_agent": "Mozilla/5.0 Password Reset Request"
                },
                "token_hash": "000000000000000000000000000000000a11971054e4d695331af5b693f00813",
                "used_at": null,
                "user_id": "58118327-c68d-420b-aa14-086aeb23d628"
              },
              {
                "expires_at": "2025-12-31T23:59:59Z",
                "id": "8ffd6003-4001-4cea-98c9-d9b1f3930e73",
                "ip_address": "192.168.1.1",
                "is_used": false,
                "metadata": {
                  "created_at": "2025-12-20T10:30:13.367692+00:00",
                  "source": "integration_test",
                  "test": true,
                  "updated_at": "2025-12-20T10:30:13.367696+00:00",
                  "user_agent": "Mozilla/5.0 Password Reset Request"
                },
                "token_hash": "000000000000000000000000000000001eed11940ea3f11ff4bda9cd7dc652b0",
                "used_at": null,
                "user_id": "66ea5284-14bf-452a-a9db-79c6c31aa855"
              },
              {
                "expires_at": "2025-12-31T23:59:59Z",
                "id": "8a6aa3e5-306a-4e7f-8be5-61cade73fdc7",
                "ip_address": "192.168.1.1",
                "is_used": false,
                "metadata": {
                  "created_at": "2025-12-20T10:54:57.264118+00:00",
                  "source": "integration_test",
                  "test": true,
                  "updated_at": "2025-12-20T10:54:57.264121+00:00",
                  "user_agent": "Mozilla/5.0 Password Reset Request"
                },
                "token_hash": "000000000000000000000000000000006fc4e58933d3dc654177858cb9f76be3",
                "used_at": null,
                "user_id": "cb46a298-b7c4-4c87-846d-42f9d5f508e3"
              },
              {
                "expires_at": "2025-12-31T23:59:59Z",
                "id": "7c413ea6-eab8-4408-babc-f0071398343e",
                "ip_address": "192.168.1.1",
                "is_used": false,
                "metadata": {
                  "created_at": "2025-12-19T13:54:05.027806+00:00",
                  "source": "integration_test",
                  "test": true,
                  "updated_at": "2025-12-19T13:54:05.027810+00:00",
                  "user_agent": "Mozilla/5.0 Password Reset Request"
                },
                "token_hash": "00000000000000000000000000000000e61ea4e2f5e5312953594e34a11fbcaf",
                "used_at": null,
                "user_id": "eee781c5-a598-4d4b-b843-bbbf4d330282"
              },
              {
                "expires_at": "2025-12-31T23:59:59Z",
                "id": "7aff8e2d-f639-44e9-82fe-822ef854f8ff",
                "ip_address": "192.168.1.1",
                "is_used": false,
                "metadata": {
                  "created_at": "2025-12-19T15:19:06.873459+00:00",
                  "source": "integration_test",
                  "test": true,
                  "updated_at": "2025-12-19T15:19:06.873461+00:00",
                  "user_agent": "Mozilla/5.0 Password Reset Request"
                },
                "token_hash": "0000000000000000000000000000000095441f75bd97ea4932385716dc06ca5f",
                "used_at": null,
                "user_id": "45834745-b8bb-476b-87ab-dfc53eececdf"
              },
              {
                "expires_at": "2025-12-31T23:59:59Z",
                "id": "658be920-91ad-4a11-90f4-0c6be8a38e29",
                "ip_address": "192.168.1.1",
                "is_used": false,
                "metadata": {
                  "created_at": "2025-12-20T03:38:58.659033+00:00",
                  "source": "integration_test",
                  "test": true,
                  "updated_at": "2025-12-20T03:38:58.659036+00:00",
                  "user_agent": "Mozilla/5.0 Password Reset Request"
                },
                "token_hash": "00000000000000000000000000000000624b463660e05fc5d4f4054d4a62dd79",
                "used_at": null,
                "user_id": "248a67f6-46b9-4dad-bfa8-c0584b05f973"
              },
              {
                "expires_at": "2025-12-31T23:59:59Z",
                "id": "5ce34973-c3cb-4ade-88f6-023661cd6f62",
                "ip_address": "192.168.1.1",
                "is_used": false,
                "metadata": {
                  "created_at": "2025-12-20T10:24:44.829364+00:00",
                  "source": "integration_test",
                  "test": true,
                  "updated_at": "2025-12-20T10:24:44.829366+00:00",
                  "user_agent": "Mozilla/5.0 Password Reset Request"
                },
                "token_hash": "00000000000000000000000000000000763e21acef2f5473881310d883220bc0",
                "used_at": null,
                "user_id": "e3fa128b-a93b-4449-bed1-927f05393af1"
              },
              {
                "expires_at": "2025-12-31T23:59:59Z",
                "id": "5c1d7adf-65a2-4dd5-b557-b35ff702e64a",
                "ip_address": "192.168.1.1",
                "is_used": false,
                "metadata": {
                  "created_at": "2025-12-20T10:50:14.301276+00:00",
                  "source": "integration_test",
                  "test": true,
                  "updated_at": "2025-12-20T10:50:14.301280+00:00",
                  "user_agent": "Mozilla/5.0 Password Reset Request"
                },
                "token_hash": "00000000000000000000000000000000944247df61d091008cc4e24c62ab4bda",
                "used_at": null,
                "user_id": "3f9ead8c-7597-4aea-9757-37a602d9e4ae"
              },
              {
                "expires_at": "2025-12-31T23:59:59Z",
                "id": "4e85b466-72d6-4cde-855f-a6b75fac91a6",
                "ip_address": "192.168.1.1",
                "is_used": false,
                "metadata": {
                  "created_at": "2025-12-20T10:22:46.035447+00:00",
                  "source": "integration_test",
                  "test": true,
                  "updated_at": "2025-12-20T10:22:46.035451+00:00",
                  "user_agent": "Mozilla/5.0 Password Reset Request"
                },
                "token_hash": "0000000000000000000000000000000002276548a3848d337ca2dce4cd09bc20",
                "used_at": null,
                "user_id": "8da18d29-0b11-48a6-980c-bebc5e91d52e"
              },
              {
                "expires_at": "2025-12-31T23:59:59Z",
                "id": "409ad781-3217-4851-9099-fc8931049f8e",
                "ip_address": "192.168.1.1",
                "is_used": false,
                "metadata": {
                  "created_at": "2025-12-20T03:48:50.093523+00:00",
                  "source": "integration_test",
                  "test": true,
                  "updated_at": "2025-12-20T03:48:50.093526+00:00",
                  "user_agent": "Mozilla/5.0 Password Reset Request"
                },
                "token_hash": "00000000000000000000000000000000b93236d828361aeb8c29e0816f967b7e",
                "used_at": null,
                "user_id": "7a081aa7-f581-41a8-ab03-65e6814da44e"
              },
              {
                "expires_at": "2025-12-31T23:59:59Z",
                "id": "3514d270-8499-4bfe-b7d4-28d0e05673fb",
                "ip_address": "192.168.1.1",
                "is_used": false,
                "metadata": {
                  "created_at": "2025-12-13T18:50:14.465358+00:00",
                  "source": "integration_test",
                  "test": true,
                  "updated_at": "2025-12-13T18:50:14.465362+00:00",
                  "user_agent": "Mozilla/5.0 Password Reset Request"
                },
                "token_hash": "00000000000000000000000000000000441c52f874b0c289cd446db2900f58e2",
                "used_at": null,
                "user_id": "3b41bffb-920e-4a32-8d06-6122edbb1a84"
              }
            ],
            "meta": {
              "limit": 20,
              "page": 1,
              "total": 23,
              "total_pages": 2
            }
          },
          "success": true
        },
        "status_code": 200
      },
      "timestamp": "2025-12-24T04:02:35.412030Z"
    },
    {
      "test_name": "PasswordResetToken - Create",
      "success": true,
      "details": "Entity created successfully",
      "duration_seconds": 0.0035905,
      "input": {
        "body": {
          "expires_at": "2025-12-31T23:59:59Z",
          "ip_address": "192.168.1.1",
          "is_used": false,
          "metadata": {
            "created_at": "2025-12-24T04:02:35.412139+00:00",
            "source": "integration_test",
            "test": true,
            "updated_at": "2025-12-24T04:02:35.412143+00:00",
            "user_agent": "Mozilla/5.0 Password Reset Request"
          },
          "token_hash": "00000000000000000000000000000000b69f68906b4d64c2f63c661f5380074f",
          "user_id": "f1c5b129-830f-4b57-86ad-52b5d247bd51"
        },
        "endpoint": "/api/v1/password_reset_tokens",
        "method": "POST"
      },
      "output": {
        "body": {
          "data": {
            "expires_at": "2025-12-31T23:59:59Z",
            "id": "1995f795-2fc0-4a27-9f9a-90dc4027a404",
            "ip_address": "192.168.1.1",
            "is_used": false,
            "metadata": {
              "created_at": "2025-12-24T04:02:35.412139+00:00",
              "source": "integration_test",
              "test": true,
              "updated_at": "2025-12-24T04:02:35.412143+00:00",
              "user_agent": "Mozilla/5.0 Password Reset Request"
            },
            "token_hash": "00000000000000000000000000000000b69f68906b4d64c2f63c661f5380074f",
            "used_at": null,
            "user_id": "f1c5b129-830f-4b57-86ad-52b5d247bd51"
          },
          "success": true
        },
        "status_code": 201
      },
      "timestamp": "2025-12-24T04:02:35.415681Z"
    },
    {
      "test_name": "PasswordResetToken - Create Invalid",
      "success": true,
      "details": "Validation correctly rejected invalid data",
      "duration_seconds": 0.000314625,
      "input": {
        "body": {
          "expires_at": "not-a-date",
          "token_hash": "too-short",
          "user_id": "invalid-uuid"
        },
        "endpoint": "/api/v1/password_reset_tokens",
        "method": "POST"
      },
      "output": {
        "body": "Failed to deserialize the JSON body into the target type: expires_at: input contains invalid characters at line 1 column 26",
        "status_code": 422
      },
      "timestamp": "2025-12-24T04:02:35.416004Z"
    },
    {
      "test_name": "PasswordResetToken - Get Not Found",
      "success": true,
      "details": "Correctly returned 404 for non-existent entity",
      "duration_seconds": 0.001056792,
      "input": {
        "endpoint": "/api/v1/password_reset_tokens/08ca97fc-07c2-4eaa-8759-81bfd1a0bc9d",
        "id": "08ca97fc-07c2-4eaa-8759-81bfd1a0bc9d",
        "method": "GET"
      },
      "output": {
        "body": "{\"success\":false,\"error\":\"PasswordResetToken with id '08ca97fc-07c2-4eaa-8759-81bfd1a0bc9d' not found\"}",
        "status_code": 404
      },
      "timestamp": "2025-12-24T04:02:35.417077Z"
    },
    {
      "test_name": "PasswordResetToken - Empty Trash",
      "success": true,
      "details": "Trash emptied",
      "duration_seconds": 0.000230917,
      "input": {
        "endpoint": "/api/v1/password_reset_tokens/empty",
        "method": "DELETE"
      },
      "output": {
        "body": "{\"success\":true,\"data\":{\"deleted_count\":0},\"message\":\"Successfully deleted 0 items from trash\"}",
        "status_code": 200
      },
      "timestamp": "2025-12-24T04:02:35.417314Z"
    }
  ]
}